#define heartRHalf_width 15
#define heartRHalf_height 27
#define heartRHalf_x_hot 15
#define heartRHalf_y_hot 14
static unsigned char heartRHalf_bits[] = {
   0x80, 0x07, 0xc0, 0x0f, 0xc0, 0x0f, 0xf0, 0x3f, 0xf8, 0x7f, 0xf8, 0x7f,
   0xff, 0x7f, 0xff, 0x7f, 0xff, 0x7f, 0xff, 0x7f, 0xff, 0x7f, 0xff, 0x7f,
   0xff, 0x7f, 0xff, 0x7f, 0xff, 0x3f, 0xff, 0x0f, 0xff, 0x0f, 0xff, 0x07,
   0xff, 0x01, 0xff, 0x01, 0xff, 0x00, 0x3f, 0x00, 0x1f, 0x00, 0x1f, 0x00,
   0x0f, 0x00, 0x03, 0x00, 0x03, 0x00 };
