#define heartLHalf_width 15
#define heartLHalf_height 27
#define heartLHalf_x_hot 17
#define heartLHalf_y_hot 14
static unsigned char heartLHalf_bits[] = {
   0xf0, 0x00, 0xf8, 0x01, 0xf8, 0x01, 0xfe, 0x07, 0xff, 0x0f, 0xff, 0x0f,
   0xff, 0x7f, 0xff, 0x7f, 0xff, 0x7f, 0xff, 0x7f, 0xff, 0x7f, 0xff, 0x7f,
   0xff, 0x7f, 0xff, 0x7f, 0xfe, 0x7f, 0xf8, 0x7f, 0xf8, 0x7f, 0xf0, 0x7f,
   0xc0, 0x7f, 0xc0, 0x7f, 0x80, 0x7f, 0x00, 0x7e, 0x00, 0x7c, 0x00, 0x7c,
   0x00, 0x78, 0x00, 0x60, 0x00, 0x60 };
