#define heartShell_width 34
#define heartShell_height 34
#define heartShell_x_hot 17
#define heartShell_y_hot 17
static unsigned char heartShell_bits[] = {
   0xc0, 0x0f, 0xc0, 0x0f, 0x00, 0xc0, 0x0f, 0xc0, 0x0f, 0x00, 0x20, 0x10,
   0x20, 0x10, 0x00, 0x18, 0x60, 0x18, 0x60, 0x00, 0x18, 0x60, 0x18, 0x60,
   0x00, 0x04, 0x80, 0x04, 0x80, 0x00, 0x03, 0x00, 0x03, 0x00, 0x03, 0x03,
   0x00, 0x03, 0x00, 0x03, 0x03, 0x00, 0x00, 0x00, 0x03, 0x03, 0x00, 0x00,
   0x00, 0x03, 0x03, 0x00, 0x00, 0x00, 0x03, 0x03, 0x00, 0x00, 0x00, 0x03,
   0x03, 0x00, 0x00, 0x00, 0x03, 0x03, 0x00, 0x00, 0x00, 0x03, 0x03, 0x00,
   0x00, 0x00, 0x03, 0x03, 0x00, 0x00, 0x00, 0x03, 0x03, 0x00, 0x00, 0x00,
   0x03, 0x03, 0x00, 0x00, 0x00, 0x03, 0x04, 0x00, 0x00, 0x80, 0x00, 0x18,
   0x00, 0x00, 0x60, 0x00, 0x18, 0x00, 0x00, 0x60, 0x00, 0x20, 0x00, 0x00,
   0x10, 0x00, 0xc0, 0x00, 0x00, 0x0c, 0x00, 0xc0, 0x00, 0x00, 0x0c, 0x00,
   0x00, 0x01, 0x00, 0x02, 0x00, 0x00, 0x06, 0x80, 0x01, 0x00, 0x00, 0x0e,
   0xc0, 0x01, 0x00, 0x00, 0x0c, 0xc0, 0x00, 0x00, 0x00, 0x10, 0x20, 0x00,
   0x00, 0x00, 0x60, 0x18, 0x00, 0x00, 0x00, 0x60, 0x18, 0x00, 0x00, 0x00,
   0x80, 0x04, 0x00, 0x00, 0x00, 0x00, 0x03, 0x00, 0x00, 0x00, 0x00, 0x03,
   0x00, 0x00 };
